{
    "total_pages": 7,
    "per_page": 25,
    "page": 1,
    "total_records": 162,
    "_links": {
      "next": {
        "href": "https://actionnetwork.org/api/v2/messages?page=2"
      },
      "self": {
        "href": "https://actionnetwork.org/api/v2/messages"
      },
      "osdi:messages": [
        {
          "href": "https://actionnetwork.org/api/v2/messages/a4dde5b6-0512-48ea-b4ad-63a71117b43d"
        },
        {
          "href": "https://actionnetwork.org/api/v2/messages/a27178b9-45c3-4844-8ebf-ebd5da74a1e3"
        }
      ],
      "curies": [
        {
          "name": "osdi",
          "href": "https://actionnetwork.org/docs/v2/{rel}",
          "templated": true
        },
        {
          "name": "action_network",
          "href": "https://actionnetwork.org/docs/v2/{rel}",
          "templated": true
        }
      ]
    },
    "_embedded": {
      "osdi:messages": [
        {
          "identifiers": [
            "action_network:a4dde5b6-0512-48ea-b4ad-63a71117b43d"
          ],
          "origin_system": "Action Network",
          "created_date": "2014-03-24T18:03:45Z",
          "modified_date": "2014-03-25T15:00:22Z",
          "subject": "Stop doing the bad thing",
          "body": "<p>The mayor should stop doing the bad thing.</p>",
          "from": "Progressive Action Now",
          "reply_to": "jane@progressiveactionnow.org",
          "administrative_url": "https://actionnetwork.org/emails/stop-doing-the-bad-thing/manage",
          "total_targeted": 2354,
          "status": "sent",
          "sent_start_date": "2014-03-26T15:00:22Z",
          "type": "email",
          "targets": [
            {
              "href": "https://actionnetwork.org/api/v2/queries/2cba37d8-1fbf-11e7-8cc2-22000aedd9ed"
            }
          ],
          "statistics": {
            "sent": 2354,
            "opened": 563,
            "clicked": 472,
            "actions": 380,
            "action_network:donated": 14,
            "action_network:total_amount": 320.25,
            "unsubscribed": 12,
            "bounced": 2,
            "spam_reports": 1
          },
          "_links": {
            "self": {
              "href": "https://actionnetwork.org/api/v2/messages/a4dde5b6-0512-48ea-b4ad-63a71117b43d"
            },
            "osdi:wrapper": {
              "href": "https://actionnetwork.org/api/v2/wrappers/c945d6fe-929e-11e3-a2e9-12313d316c29"
            },
            "osdi:recipients": {
              "href": "https://actionnetwork.org/api/v2/lists/950e9954-606f-43e6-be99-2bc0bc2072a1"
            },
            "osdi:send_helper": {
              "href": "https://actionnetwork.org/api/v2/messages/a4dde5b6-0512-48ea-b4ad-63a71117b43d/send"
            },
            "osdi:schedule_helper": {
              "href": "https://actionnetwork.org/api/v2/messages/a4dde5b6-0512-48ea-b4ad-63a71117b43d/schedule"
            }
          }
        },
        {
          "identifiers": [
            "action_network:a27178b9-45c3-4844-8ebf-ebd5da74a1e3",
            "foreign_system:1"
          ],
          "origin_system": "My Email Making System",
          "created_date": "2014-03-27T18:03:45Z",
          "modified_date": "2014-03-28T15:00:22Z",
          "subject": "FWD: Stop doing the bad thing",
          "body": "<p>Have you signed yet? The mayor should stop doing the bad thing.</p>",
          "from": "Progressive Action Now",
          "reply_to": "jane@progressiveactionnow.org",
          "administrative_url": "https://actionnetwork.org/emails/fwd-stop-doing-the-bad-thing/manage",
          "total_targeted": 12673,
          "status": "draft",
          "type": "email",
          "targets": [],
          "_links": {
            "self": {
              "href": "https://actionnetwork.org/api/v2/messages/a27178b9-45c3-4844-8ebf-ebd5da74a1e3"
            },
            "osdi:send_helper": {
              "href": "https://actionnetwork.org/api/v2/messages/a27178b9-45c3-4844-8ebf-ebd5da74a1e3/send"
            },
            "osdi:schedule_helper": {
              "href": "https://actionnetwork.org/api/v2/messages/a27178b9-45c3-4844-8ebf-ebd5da74a1e3/schedule"
            }
          }
        }
      ]
    }
  }