{
    "total_pages": 7,
    "per_page": 25,
    "page": 1,
    "total_records": 162,
    "_links": {
      "next": {
        "href": "https://actionnetwork.org/api/v2/surveys?page=2"
      },
      "self": {
        "href": "https://actionnetwork.org/api/v2/surveys"
      },
      "action_network:surveys": [
        {
          "href": "https://actionnetwork.org/api/v2/surveys/a4dde5b6-0512-48ea-b4ad-63a71117b43d"
        },
        {
          "href": "https://actionnetwork.org/api/v2/surveys/a27178b9-45c3-4844-8ebf-ebd5da74a1e3"
        }
      ],
      "curies": [
        {
          "name": "osdi",
          "href": "https://actionnetwork.org/docs/v2/{rel}",
          "templated": true
        },
        {
          "name": "action_network",
          "href": "https://actionnetwork.org/docs/v2/{rel}",
          "templated": true
        }
      ]
    },
    "_embedded": {
      "action_network:surveys": [
        {
          "identifiers": [
            "action_network:a4dde5b6-0512-48ea-b4ad-63a71117b43d"
          ],
          "origin_system": "Action Network",
          "created_date": "2014-03-24T18:03:45Z",
          "modified_date": "2014-03-25T15:00:22Z",
          "title": "Tell us about yourself!",
          "description": "<p>Tell us a bit more about yourself.</p>",
          "call_to_action": "Let us know",
          "browser_url": "https://actionnetwork.org/surveys/tell-us-about-yourself",
          "featured_image_url": "https://actionnetwork.org/images/tell-us-about-yourself.jpg",
          "total_responses": 2354,
          "action_network:hidden": false,
          "_embedded": {
            "osdi:creator": {
              "given_name": "John",
              "family_name": "Doe",
              "identifiers": [
                "action_network:c945d6fe-929e-11e3-a2e9-12313d316c29"
              ],
              "created_date": "2014-03-24T18:03:45Z",
              "modified_date": "2014-03-25T15:00:22Z",
              "email_addresses": [
                {
                  "primary": true,
                  "address": "jdoe@mail.com",
                  "status": "subscribed"
                }
              ],
              "phone_numbers": [
                {
                  "primary": true,
                  "number": "12021234444",
                  "number_type": "Mobile",
                  "status": "subscribed"
                }
              ],
              "postal_addresses": [
                {
                  "primary": true,
                  "address_lines": [
                    "1600 Pennsylvania Ave."
                  ],
                  "locality": "Washington",
                  "region": "DC",
                  "postal_code": "20009",
                  "country": "US",
                  "language": "en",
                  "location": {
                    "latitude": 35.919,
                    "longitude": -72.0379,
                    "accuracy": "Approximate"
                  }
                }
              ],
              "languages_spoken": [
                "en"
              ],
              "_links": {
                "self": {
                  "href": "https://actionnetwork.org/api/v2/people/c945d6fe-929e-11e3-a2e9-12313d316c29"
                },
                "osdi:attendances": {
                  "href": "https://actionnetwork.org/api/v2/people/c945d6fe-929e-11e3-a2e9-12313d316c29/attendances"
                },
                "osdi:signatures": {
                  "href": "https://actionnetwork.org/api/v2/people/c945d6fe-929e-11e3-a2e9-12313d316c29/signatures"
                },
                "osdi:submissions": {
                  "href": "https://actionnetwork.org/api/v2/people/c945d6fe-929e-11e3-a2e9-12313d316c29/submissions"
                },
                "osdi:donations": {
                  "href": "https://actionnetwork.org/api/v2/people/c945d6fe-929e-11e3-a2e9-12313d316c29/donations"
                },
                "osdi:outreaches": {
                  "href": "https://actionnetwork.org/api/v2/people/c945d6fe-929e-11e3-a2e9-12313d316c29/outreaches"
                },
                "osdi:taggings": {
                  "href": "https://actionnetwork.org/api/v2/people/c945d6fe-929e-11e3-a2e9-12313d316c29/taggings"
                },
                "action_network:responses": {
                  "href": "https://actionnetwork.org/api/v2/people/c945d6fe-929e-11e3-a2e9-12313d316c29/responses"
                }
              }
            }
          },
          "_links": {
            "self": {
              "href": "https://actionnetwork.org/api/v2/surveys/a4dde5b6-0512-48ea-b4ad-63a71117b43d"
            },
            "action_network:responses": {
              "href": "https://actionnetwork.org/api/v2/surveys/a4dde5b6-0512-48ea-b4ad-63a71117b43d/responses"
            },
            "action_network:record_response_helper": {
              "href": "https://actionnetwork.org/api/v2/surveys/a4dde5b6-0512-48ea-b4ad-63a71117b43d/responses"
            },
            "osdi:creator": {
              "href": "https://actionnetwork.org/api/v2/people/c945d6fe-929e-11e3-a2e9-12313d316c29"
            },
            "action_network:embed": {
              "href": "https://actionnetwork.org/api/v2/surveys/a4dde5b6-0512-48ea-b4ad-63a71117b43d/embed"
            }
          }
        },
        {
          "identifiers": [
            "action_network:a27178b9-45c3-4844-8ebf-ebd5da74a1e3",
            "foreign_system:1"
          ],
          "origin_system": "Another System",
          "created_date": "2014-03-14T15:21:05Z",
          "modified_date": "2014-03-17T19:56:11Z",
          "title": "Volunteer survey",
          "total_responses": 123,
          "action_network:hidden": false,
          "_embedded": {
            "osdi:creator": {
              "given_name": "John",
              "family_name": "Doe",
              "identifiers": [
                "action_network:c945d6fe-929e-11e3-a2e9-12313d316c29"
              ],
              "created_date": "2014-03-24T18:03:45Z",
              "modified_date": "2014-03-25T15:00:22Z",
              "email_addresses": [
                {
                  "primary": true,
                  "address": "jdoe@mail.com",
                  "status": "subscribed"
                }
              ],
              "phone_numbers": [
                {
                  "primary": true,
                  "number": "12021234444",
                  "number_type": "Mobile",
                  "status": "subscribed"
                }
              ],
              "postal_addresses": [
                {
                  "primary": true,
                  "address_lines": [
                    "1600 Pennsylvania Ave."
                  ],
                  "locality": "Washington",
                  "region": "DC",
                  "postal_code": "20009",
                  "country": "US",
                  "language": "en",
                  "location": {
                    "latitude": 35.919,
                    "longitude": -72.0379,
                    "accuracy": "Approximate"
                  }
                }
              ],
              "languages_spoken": [
                "en"
              ],
              "_links": {
                "self": {
                  "href": "https://actionnetwork.org/api/v2/people/c945d6fe-929e-11e3-a2e9-12313d316c29"
                },
                "osdi:attendances": {
                  "href": "https://actionnetwork.org/api/v2/people/c945d6fe-929e-11e3-a2e9-12313d316c29/attendances"
                },
                "osdi:signatures": {
                  "href": "https://actionnetwork.org/api/v2/people/c945d6fe-929e-11e3-a2e9-12313d316c29/signatures"
                },
                "osdi:submissions": {
                  "href": "https://actionnetwork.org/api/v2/people/c945d6fe-929e-11e3-a2e9-12313d316c29/submissions"
                },
                "osdi:donations": {
                  "href": "https://actionnetwork.org/api/v2/people/c945d6fe-929e-11e3-a2e9-12313d316c29/donations"
                },
                "osdi:outreaches": {
                  "href": "https://actionnetwork.org/api/v2/people/c945d6fe-929e-11e3-a2e9-12313d316c29/outreaches"
                },
                "osdi:taggings": {
                  "href": "https://actionnetwork.org/api/v2/people/c945d6fe-929e-11e3-a2e9-12313d316c29/taggings"
                },
                "action_network:responses": {
                  "href": "https://actionnetwork.org/api/v2/people/c945d6fe-929e-11e3-a2e9-12313d316c29/responses"
                }
              }
            }
          },
          "action_network:sponsor": {
            "title": "Progressive Action Now",
            "url": "https://actionnetwork.org/groups/progressive-action-now"
          },
          "_links": {
            "self": {
              "href": "https://actionnetwork.org/api/v2/surveys/a27178b9-45c3-4844-8ebf-ebd5da74a1e3"
            },
            "action_network:responses": {
              "href": "https://actionnetwork.org/api/v2/surveys/a27178b9-45c3-4844-8ebf-ebd5da74a1e3/responses"
            },
            "action_network:record_response_helper": {
              "href": "https://actionnetwork.org/api/v2/surveys/a27178b9-45c3-4844-8ebf-ebd5da74a1e3/respnoses"
            },
            "osdi:creator": {
              "href": "https://actionnetwork.org/api/v2/people/c945d6fe-929e-11e3-a2e9-12313d316c29"
            },
            "action_network:embed": {
              "href": "https://actionnetwork.org/api/v2/surveys/a27178b9-45c3-4844-8ebf-ebd5da74a1e3/embed"
            }
          }
        }
      ]
    }
  }