{
    "total_pages": 10,
    "per_page": 25,
    "page": 1,
    "total_records": 250,
    "_links": {
      "next": {
        "href": "https://actionnetwork.org/api/v2/unique_id_lists?page=2"
      },
      "self": {
        "href": "https://actionnetwork.org/api/v2/unique_id_lists"
      },
      "action_network:unique_id_lists": [
        {
          "href": "https://actionnetwork.org/api/v2/unique_id_lists/65345d7d-cd24-466a-a698-4a7686ef684f"
        },
        {
          "href": "https://actionnetwork.org/api/v2/unique_id_lists/adb951cb-51f9-420e-b7e6-de953195ec86"
        }
      ],
      "curies": [
        {
          "name": "osdi",
          "href": "https://actionnetwork.org/docs/v2/{rel}",
          "templated": true
        },
        {
          "name": "action_network",
          "href": "https://actionnetwork.org/docs/v2/{rel}",
          "templated": true
        }
      ]
    },
    "_embedded": {
      "action_network:unique_id_lists": [
        {
          "origin_system": "Action Network",
          "identifiers": [
            "action_network:65345d7d-cd24-466a-a698-4a7686ef684f",
            "my_system:1"
          ],
          "created_date": "2023-03-25T14:40:07Z",
          "modified_date": "2023-03-25T14:47:44Z",
          "name": "Volunteers",
          "count": 25,
          "_links": {
            "self": {
              "href": "https://actionnetwork.org/api/v2/unique_id_lists/65345d7d-cd24-466a-a698-4a7686ef684f"
            }
          }
        },
        {
          "origin_system": "Action Network",
          "identifiers": [
            "action_network:adb951cb-51f9-420e-b7e6-de953195ec86"
          ],
          "created_date": "2023-03-21T23:39:53Z",
          "modified_date": "2023-03-25T15:26:45Z",
          "name": "High dollar donors",
          "count": 6,
          "_links": {
            "self": {
              "href": "https://actionnetwork.org/api/v2/unique_id_lists/adb951cb-51f9-420e-b7e6-de953195ec86"
            }
          }
        }
      ]
    }
  }