{
    "total_pages": 10,
    "per_page": 25,
    "page": 1,
    "total_records": 250,
    "_links": {
      "next": {
        "href": "https://actionnetwork.org/api/v2/forms?page=2"
      },
      "self": {
        "href": "https://actionnetwork.org/api/v2/forms"
      },
      "osdi:forms": [
        {
          "href": "https://actionnetwork.org/api/v2/forms/65345d7d-cd24-466a-a698-4a7686ef684f"
        },
        {
          "href": "https://actionnetwork.org/api/v2/forms/adb951cb-51f9-420e-b7e6-de953195ec86"
        }
      ],
      "curies": [
        {
          "name": "osdi",
          "href": "https://actionnetwork.org/docs/v2/{rel}",
          "templated": true
        },
        {
          "name": "action_network",
          "href": "https://actionnetwork.org/docs/v2/{rel}",
          "templated": true
        }
      ]
    },
    "_embedded": {
      "osdi:forms": [
        {
          "origin_system": "FreeForms.com",
          "identifiers": [
            "action_network:65345d7d-cd24-466a-a698-4a7686ef684f",
            "free_forms:1"
          ],
          "created_date": "2014-03-25T14:40:07Z",
          "modified_date": "2014-03-25T14:47:44Z",
          "title": "Tell your story",
          "total_submissions": 25,
          "action_network:hidden": false,
          "_embedded": {
            "osdi:creator": {
              "given_name": "John",
              "family_name": "Doe",
              "identifiers": [
                "action_network:c945d6fe-929e-11e3-a2e9-12313d316c29"
              ],
              "created_date": "2014-03-24T18:03:45Z",
              "modified_date": "2014-03-25T15:00:22Z",
              "email_addresses": [
                {
                  "primary": true,
                  "address": "jdoe@mail.com",
                  "status": "subscribed"
                }
              ],
              "phone_numbers": [
                {
                  "primary": true,
                  "number": "12021234444",
                  "number_type": "Mobile",
                  "status": "subscribed"
                }
              ],
              "postal_addresses": [
                {
                  "primary": true,
                  "address_lines": [
                    "1600 Pennsylvania Ave"
                  ],
                  "locality": "Washington",
                  "region": "DC",
                  "postal_code": "20009",
                  "country": "US",
                  "language": "en",
                  "location": {
                    "latitude": 32.935,
                    "longitude": -73.1338,
                    "accuracy": "Approximate"
                  }
                }
              ],
              "languages_spoken": [
                "en"
              ],
              "_links": {
                "self": {
                  "href": "https://actionnetwork.org/api/v2/people/c945d6fe-929e-11e3-a2e9-12313d316c29"
                },
                "osdi:attendances": {
                  "href": "https://actionnetwork.org/api/v2/people/c945d6fe-929e-11e3-a2e9-12313d316c29/attendances"
                },
                "osdi:signatures": {
                  "href": "https://actionnetwork.org/api/v2/people/c945d6fe-929e-11e3-a2e9-12313d316c29/signatures"
                },
                "osdi:submissions": {
                  "href": "https://actionnetwork.org/api/v2/people/c945d6fe-929e-11e3-a2e9-12313d316c29/submissions"
                },
                "osdi:donations": {
                  "href": "https://actionnetwork.org/api/v2/people/c945d6fe-929e-11e3-a2e9-12313d316c29/donations"
                },
                "osdi:outreaches": {
                  "href": "https://actionnetwork.org/api/v2/people/c945d6fe-929e-11e3-a2e9-12313d316c29/outreaches"
                },
                "osdi:taggings": {
                  "href": "https://actionnetwork.org/api/v2/people/c945d6fe-929e-11e3-a2e9-12313d316c29/taggings"
                }
              }
            }
          },
          "_links": {
            "self": {
              "href": "https://actionnetwork.org/api/v2/forms/65345d7d-cd24-466a-a698-4a7686ef684f"
            },
            "osdi:submissions": {
              "href": "https://actionnetwork.org/api/v2/forms/65345d7d-cd24-466a-a698-4a7686ef684f/submissions"
            },
            "osdi:record_submission_helper": {
              "href": "https://actionnetwork.org/api/v2/forms/65345d7d-cd24-466a-a698-4a7686ef684f/submissions"
            },
            "osdi:creator": {
              "href": "https://actionnetwork.org/api/v2/people/c945d6fe-929e-11e3-a2e9-12313d316c29"
            },
            "action_network:embed": {
              "href": "https://actionnetwork.org/api/v2/forms/65345d7d-cd24-466a-a698-4a7686ef684f/embed"
            }
          }
        },
        {
          "identifiers": [
            "action_network:adb951cb-51f9-420e-b7e6-de953195ec86"
          ],
          "created_date": "2014-03-21T23:39:53Z",
          "modified_date": "2014-03-25T15:26:45Z",
          "title": "Take our end of year survey",
          "description": "<p>Let us know what you think!</p>",
          "call_to_action": "Let us know",
          "browser_url": "https://actionnetwork.org/forms/end-of-year-survey",
          "featured_image_url": "https://actionnetwork.org/images/survey.jpg",
          "total_submissions": 6,
          "action_network:hidden": false,
          "_embedded": {
            "osdi:creator": {
              "given_name": "John",
              "family_name": "Doe",
              "identifiers": [
                "action_network:c945d6fe-929e-11e3-a2e9-12313d316c29"
              ],
              "created_date": "2014-03-24T18:03:45Z",
              "modified_date": "2014-03-25T15:00:22Z",
              "email_addresses": [
                {
                  "primary": true,
                  "address": "jdoe@mail.com",
                  "status": "subscribed"
                }
              ],
              "phone_numbers": [
                {
                  "primary": true,
                  "number": "12021234444",
                  "number_type": "Mobile",
                  "status": "subscribed"
                }
              ],
              "postal_addresses": [
                {
                  "primary": true,
                  "address_lines": [
                    "1600 Pennsylvania Ave."
                  ],
                  "locality": "Washington",
                  "region": "DC",
                  "postal_code": "20009",
                  "country": "US",
                  "language": "en",
                  "location": {
                    "latitude": 32.934,
                    "longitude": -74.5319,
                    "accuracy": "Approximate"
                  }
                }
              ],
              "languages_spoken": [
                "en"
              ],
              "_links": {
                "self": {
                  "href": "https://actionnetwork.org/api/v2/people/c945d6fe-929e-11e3-a2e9-12313d316c29"
                },
                "osdi:attendances": {
                  "href": "https://actionnetwork.org/api/v2/people/c945d6fe-929e-11e3-a2e9-12313d316c29/attendances"
                },
                "osdi:signatures": {
                  "href": "https://actionnetwork.org/api/v2/people/c945d6fe-929e-11e3-a2e9-12313d316c29/signatures"
                },
                "osdi:submissions": {
                  "href": "https://actionnetwork.org/api/v2/people/c945d6fe-929e-11e3-a2e9-12313d316c29/submissions"
                },
                "osdi:donations": {
                  "href": "https://actionnetwork.org/api/v2/people/c945d6fe-929e-11e3-a2e9-12313d316c29/donations"
                },
                "osdi:outreaches": {
                  "href": "https://actionnetwork.org/api/v2/people/c945d6fe-929e-11e3-a2e9-12313d316c29/outreaches"
                },
                "osdi:taggings": {
                  "href": "https://actionnetwork.org/api/v2/people/c945d6fe-929e-11e3-a2e9-12313d316c29/taggings"
                }
              }
            }
          },
          "_links": {
            "self": {
              "href": "https://actionnetwork.org/api/v2/forms/adb951cb-51f9-420e-b7e6-de953195ec86"
            },
            "osdi:submissions": {
              "href": "https://actionnetwork.org/api/v2/forms/adb951cb-51f9-420e-b7e6-de953195ec86/submissions"
            },
            "osdi:record_submission_helper": {
              "href": "https://actionnetwork.org/api/v2/forms/adb951cb-51f9-420e-b7e6-de953195ec86/submissions"
            },
            "osdi:creator": {
              "href": "https://actionnetwork.org/api/v2/people/c945d6fe-929e-11e3-a2e9-12313d316c29"
            },
            "action_network:embed": {
              "href": "https://actionnetwork.org/api/v2/forms/adb951cb-51f9-420e-b7e6-de953195ec86/embed"
            }
          }
        }
      ]
    }
  }